%YAML 1.1
%TAG !u! tag:unity3d.com,2011:
--- !u!1001 &7251040301481863939
PrefabInstance:
  m_ObjectHideFlags: 0
  serializedVersion: 2
  m_Modification:
    m_TransformParent: {fileID: 0}
    m_Modifications:
    - target: {fileID: 2297971406998636690, guid: 7db6dc8726bc2aa44903fecd9e8cdb48,
        type: 3}
      propertyPath: m_AnchoredPosition.y
      value: -3.47
      objectReference: {fileID: 0}
    - target: {fileID: 2297971406998636690, guid: 7db6dc8726bc2aa44903fecd9e8cdb48,
        type: 3}
      propertyPath: m_SizeDelta.y
      value: 12
      objectReference: {fileID: 0}
    - target: {fileID: 2297971406998636690, guid: 7db6dc8726bc2aa44903fecd9e8cdb48,
        type: 3}
      propertyPath: m_SizeDelta.x
      value: 3.924
      objectReference: {fileID: 0}
    - target: {fileID: 2297971406998636690, guid: 7db6dc8726bc2aa44903fecd9e8cdb48,
        type: 3}
      propertyPath: m_AnchoredPosition.x
      value: -0.34
      objectReference: {fileID: 0}
    - target: {fileID: 2297971406998636691, guid: 7db6dc8726bc2aa44903fecd9e8cdb48,
        type: 3}
      propertyPath: m_Sprite
      value: 
      objectReference: {fileID: 21300000, guid: 4c39cab5dcf026843a5f0c40af85a70b,
        type: 3}
    - target: {fileID: 2297971406998636702, guid: 7db6dc8726bc2aa44903fecd9e8cdb48,
        type: 3}
      propertyPath: m_Center.x
      value: 0.38
      objectReference: {fileID: 0}
    - target: {fileID: 2297971406998636702, guid: 7db6dc8726bc2aa44903fecd9e8cdb48,
        type: 3}
      propertyPath: m_Center.y
      value: -5.76
      objectReference: {fileID: 0}
    - target: {fileID: 2297971407073369188, guid: 7db6dc8726bc2aa44903fecd9e8cdb48,
        type: 3}
      propertyPath: m_LocalPosition.x
      value: 0
      objectReference: {fileID: 0}
    - target: {fileID: 2297971407073369188, guid: 7db6dc8726bc2aa44903fecd9e8cdb48,
        type: 3}
      propertyPath: m_LocalPosition.y
      value: 0
      objectReference: {fileID: 0}
    - target: {fileID: 2297971407073369188, guid: 7db6dc8726bc2aa44903fecd9e8cdb48,
        type: 3}
      propertyPath: m_LocalPosition.z
      value: 0
      objectReference: {fileID: 0}
    - target: {fileID: 2297971407073369188, guid: 7db6dc8726bc2aa44903fecd9e8cdb48,
        type: 3}
      propertyPath: m_LocalRotation.x
      value: 0
      objectReference: {fileID: 0}
    - target: {fileID: 2297971407073369188, guid: 7db6dc8726bc2aa44903fecd9e8cdb48,
        type: 3}
      propertyPath: m_LocalRotation.y
      value: 0
      objectReference: {fileID: 0}
    - target: {fileID: 2297971407073369188, guid: 7db6dc8726bc2aa44903fecd9e8cdb48,
        type: 3}
      propertyPath: m_LocalRotation.z
      value: 0
      objectReference: {fileID: 0}
    - target: {fileID: 2297971407073369188, guid: 7db6dc8726bc2aa44903fecd9e8cdb48,
        type: 3}
      propertyPath: m_LocalRotation.w
      value: 1
      objectReference: {fileID: 0}
    - target: {fileID: 2297971407073369188, guid: 7db6dc8726bc2aa44903fecd9e8cdb48,
        type: 3}
      propertyPath: m_RootOrder
      value: 0
      objectReference: {fileID: 0}
    - target: {fileID: 2297971407073369188, guid: 7db6dc8726bc2aa44903fecd9e8cdb48,
        type: 3}
      propertyPath: m_LocalEulerAnglesHint.x
      value: 0
      objectReference: {fileID: 0}
    - target: {fileID: 2297971407073369188, guid: 7db6dc8726bc2aa44903fecd9e8cdb48,
        type: 3}
      propertyPath: m_LocalEulerAnglesHint.y
      value: 0
      objectReference: {fileID: 0}
    - target: {fileID: 2297971407073369188, guid: 7db6dc8726bc2aa44903fecd9e8cdb48,
        type: 3}
      propertyPath: m_LocalEulerAnglesHint.z
      value: 0
      objectReference: {fileID: 0}
    - target: {fileID: 2297971407073369188, guid: 7db6dc8726bc2aa44903fecd9e8cdb48,
        type: 3}
      propertyPath: m_AnchoredPosition.x
      value: 90
      objectReference: {fileID: 0}
    - target: {fileID: 2297971407073369188, guid: 7db6dc8726bc2aa44903fecd9e8cdb48,
        type: 3}
      propertyPath: m_AnchoredPosition.y
      value: 0
      objectReference: {fileID: 0}
    - target: {fileID: 2297971407073369188, guid: 7db6dc8726bc2aa44903fecd9e8cdb48,
        type: 3}
      propertyPath: m_SizeDelta.x
      value: 3.94
      objectReference: {fileID: 0}
    - target: {fileID: 2297971407073369188, guid: 7db6dc8726bc2aa44903fecd9e8cdb48,
        type: 3}
      propertyPath: m_SizeDelta.y
      value: 17.9
      objectReference: {fileID: 0}
    - target: {fileID: 2297971407073369188, guid: 7db6dc8726bc2aa44903fecd9e8cdb48,
        type: 3}
      propertyPath: m_AnchorMin.x
      value: 0.5
      objectReference: {fileID: 0}
    - target: {fileID: 2297971407073369188, guid: 7db6dc8726bc2aa44903fecd9e8cdb48,
        type: 3}
      propertyPath: m_AnchorMin.y
      value: 0.5
      objectReference: {fileID: 0}
    - target: {fileID: 2297971407073369188, guid: 7db6dc8726bc2aa44903fecd9e8cdb48,
        type: 3}
      propertyPath: m_AnchorMax.x
      value: 0.5
      objectReference: {fileID: 0}
    - target: {fileID: 2297971407073369188, guid: 7db6dc8726bc2aa44903fecd9e8cdb48,
        type: 3}
      propertyPath: m_AnchorMax.y
      value: 0.5
      objectReference: {fileID: 0}
    - target: {fileID: 2297971407073369188, guid: 7db6dc8726bc2aa44903fecd9e8cdb48,
        type: 3}
      propertyPath: m_Pivot.x
      value: 0.5
      objectReference: {fileID: 0}
    - target: {fileID: 2297971407073369188, guid: 7db6dc8726bc2aa44903fecd9e8cdb48,
        type: 3}
      propertyPath: m_Pivot.y
      value: 0.5
      objectReference: {fileID: 0}
    - target: {fileID: 2297971407073369189, guid: 7db6dc8726bc2aa44903fecd9e8cdb48,
        type: 3}
      propertyPath: type
      value: 2
      objectReference: {fileID: 0}
    - target: {fileID: 2297971407073369191, guid: 7db6dc8726bc2aa44903fecd9e8cdb48,
        type: 3}
      propertyPath: m_Name
      value: 1leg
      objectReference: {fileID: 0}
    - target: {fileID: 2297971407759045282, guid: 7db6dc8726bc2aa44903fecd9e8cdb48,
        type: 3}
      propertyPath: m_Sprite
      value: 
      objectReference: {fileID: 21300000, guid: e32705aa09f3d7d4fb70b40c24a36c30,
        type: 3}
    - target: {fileID: 2297971407759045285, guid: 7db6dc8726bc2aa44903fecd9e8cdb48,
        type: 3}
      propertyPath: m_SizeDelta.x
      value: 2.9
      objectReference: {fileID: 0}
    m_RemovedComponents: []
  m_SourcePrefab: {fileID: 100100000, guid: 7db6dc8726bc2aa44903fecd9e8cdb48, type: 3}
