%YAML 1.1
%TAG !u! tag:unity3d.com,2011:
--- !u!1001 &6654113938386400160
PrefabInstance:
  m_ObjectHideFlags: 0
  serializedVersion: 2
  m_Modification:
    m_TransformParent: {fileID: 0}
    m_Modifications:
    - target: {fileID: 689756739149008207, guid: f1c0c6ebc253b2142a43d590f69b95d4,
        type: 3}
      propertyPath: m_Size.x
      value: 3.1
      objectReference: {fileID: 0}
    - target: {fileID: 689756739149008207, guid: f1c0c6ebc253b2142a43d590f69b95d4,
        type: 3}
      propertyPath: m_Size.y
      value: 4
      objectReference: {fileID: 0}
    - target: {fileID: 3483786130158766268, guid: f1c0c6ebc253b2142a43d590f69b95d4,
        type: 3}
      propertyPath: m_Name
      value: 1eye
      objectReference: {fileID: 0}
    - target: {fileID: 8212786322463237287, guid: f1c0c6ebc253b2142a43d590f69b95d4,
        type: 3}
      propertyPath: m_LocalPosition.x
      value: 0
      objectReference: {fileID: 0}
    - target: {fileID: 8212786322463237287, guid: f1c0c6ebc253b2142a43d590f69b95d4,
        type: 3}
      propertyPath: m_LocalPosition.y
      value: 0
      objectReference: {fileID: 0}
    - target: {fileID: 8212786322463237287, guid: f1c0c6ebc253b2142a43d590f69b95d4,
        type: 3}
      propertyPath: m_RootOrder
      value: 0
      objectReference: {fileID: 0}
    - target: {fileID: 8212786322463237287, guid: f1c0c6ebc253b2142a43d590f69b95d4,
        type: 3}
      propertyPath: m_LocalEulerAnglesHint.x
      value: 0
      objectReference: {fileID: 0}
    - target: {fileID: 8212786322463237287, guid: f1c0c6ebc253b2142a43d590f69b95d4,
        type: 3}
      propertyPath: m_LocalEulerAnglesHint.y
      value: 0
      objectReference: {fileID: 0}
    - target: {fileID: 8212786322463237287, guid: f1c0c6ebc253b2142a43d590f69b95d4,
        type: 3}
      propertyPath: m_LocalEulerAnglesHint.z
      value: 0
      objectReference: {fileID: 0}
    - target: {fileID: 8212786322463237287, guid: f1c0c6ebc253b2142a43d590f69b95d4,
        type: 3}
      propertyPath: m_SizeDelta.x
      value: 3.17
      objectReference: {fileID: 0}
    - target: {fileID: 8212786322463237287, guid: f1c0c6ebc253b2142a43d590f69b95d4,
        type: 3}
      propertyPath: m_SizeDelta.y
      value: 4.03
      objectReference: {fileID: 0}
    m_RemovedComponents: []
  m_SourcePrefab: {fileID: 100100000, guid: f1c0c6ebc253b2142a43d590f69b95d4, type: 3}
